\relax 
\providecommand\hyper@newdestlabel[2]{}
\@writefile{toc}{\contentsline {chapter}{\numberline {10}Complexit\IeC {\'e}}{35}{chapter.10}}
\@writefile{lof}{\addvspace {10\p@ }}
\@writefile{lot}{\addvspace {10\p@ }}
\@writefile{loa}{\addvspace {10\p@ }}
\@writefile{toc}{\contentsline {section}{\numberline {10.1}S\IeC {\'e}quentiel}{35}{section.10.1}}
\@writefile{toc}{\contentsline {paragraph}{}{35}{section*.143}}
\@writefile{toc}{\contentsline {paragraph}{}{35}{section*.144}}
\@writefile{toc}{\contentsline {section}{\numberline {10.2}Parall\IeC {\`e}le : Processeur}{36}{section.10.2}}
\@writefile{toc}{\contentsline {paragraph}{}{36}{section*.145}}
\@writefile{toc}{\contentsline {section}{\numberline {10.3}Parall\IeC {\`e}le : GPU}{36}{section.10.3}}
\@writefile{toc}{\contentsline {paragraph}{}{36}{section*.146}}
\@writefile{toc}{\contentsline {paragraph}{}{36}{section*.147}}
\@writefile{toc}{\contentsline {paragraph}{}{36}{section*.148}}
\@writefile{toc}{\contentsline {paragraph}{}{37}{section*.149}}
\@setckpt{analyse}{
\setcounter{page}{38}
\setcounter{equation}{0}
\setcounter{enumi}{7}
\setcounter{enumii}{0}
\setcounter{enumiii}{0}
\setcounter{enumiv}{0}
\setcounter{footnote}{0}
\setcounter{mpfootnote}{0}
\setcounter{part}{0}
\setcounter{chapter}{10}
\setcounter{section}{3}
\setcounter{subsection}{0}
\setcounter{subsubsection}{0}
\setcounter{paragraph}{0}
\setcounter{subparagraph}{0}
\setcounter{figure}{0}
\setcounter{table}{0}
\setcounter{Item}{7}
\setcounter{Hfootnote}{6}
\setcounter{bookmark@seq@number}{47}
\setcounter{AlgoLine}{0}
\setcounter{algocfline}{1}
\setcounter{algocfproc}{1}
\setcounter{algocf}{0}
\setcounter{FancyVerbLine}{11}
\setcounter{float@type}{4}
\setcounter{section@level}{4}
}
