\relax 
\providecommand\hyper@newdestlabel[2]{}
\@writefile{toc}{\contentsline {chapter}{\numberline {8}Architecture et Documentation}{23}{chapter.8}}
\@writefile{lof}{\addvspace {10\p@ }}
\@writefile{lot}{\addvspace {10\p@ }}
\@writefile{loa}{\addvspace {10\p@ }}
\@writefile{toc}{\contentsline {paragraph}{}{23}{section*.84}}
\@writefile{toc}{\contentsline {paragraph}{}{23}{section*.85}}
\@writefile{toc}{\contentsline {section}{\numberline {8.1}Diagramme}{23}{section.8.1}}
\@writefile{toc}{\contentsline {paragraph}{}{23}{section*.86}}
\@writefile{lof}{\contentsline {figure}{\numberline {8.1}{\ignorespaces Sch\IeC {\'e}ma de l'architecture du syst\IeC {\`e}me}}{23}{figure.8.1}}
\newlabel{fig:archiSys}{{8.1}{23}{Schéma de l'architecture du système}{figure.8.1}{}}
\@writefile{toc}{\contentsline {paragraph}{}{23}{section*.87}}
\@writefile{toc}{\contentsline {paragraph}{}{23}{section*.88}}
\@writefile{toc}{\contentsline {section}{\numberline {8.2}Architecture}{24}{section.8.2}}
\@writefile{toc}{\contentsline {paragraph}{}{24}{section*.89}}
\@writefile{toc}{\contentsline {paragraph}{}{24}{section*.90}}
\@writefile{toc}{\contentsline {paragraph}{}{24}{section*.91}}
\@writefile{toc}{\contentsline {paragraph}{}{24}{section*.92}}
\@writefile{lof}{\contentsline {figure}{\numberline {8.2}{\ignorespaces Vision globale de l'architecture}}{24}{figure.8.2}}
\newlabel{fig:archiSys}{{8.2}{24}{Vision globale de l'architecture}{figure.8.2}{}}
\@writefile{toc}{\contentsline {section}{\numberline {8.3}Documentation}{25}{section.8.3}}
\@writefile{toc}{\contentsline {paragraph}{}{25}{section*.93}}
\@setckpt{archi}{
\setcounter{page}{26}
\setcounter{equation}{0}
\setcounter{enumi}{0}
\setcounter{enumii}{0}
\setcounter{enumiii}{0}
\setcounter{enumiv}{0}
\setcounter{footnote}{0}
\setcounter{mpfootnote}{0}
\setcounter{part}{0}
\setcounter{chapter}{8}
\setcounter{section}{3}
\setcounter{subsection}{0}
\setcounter{subsubsection}{0}
\setcounter{paragraph}{0}
\setcounter{subparagraph}{0}
\setcounter{figure}{2}
\setcounter{table}{0}
\setcounter{Item}{0}
\setcounter{Hfootnote}{5}
\setcounter{bookmark@seq@number}{33}
\setcounter{AlgoLine}{0}
\setcounter{algocfline}{1}
\setcounter{algocfproc}{1}
\setcounter{algocf}{0}
\setcounter{FancyVerbLine}{3}
\setcounter{float@type}{4}
\setcounter{section@level}{4}
}
