\relax 
\providecommand\hyper@newdestlabel[2]{}
\@writefile{toc}{\contentsline {chapter}{\numberline {4}Besoins fonctionnels}{13}{chapter.4}}
\@writefile{lof}{\addvspace {10\p@ }}
\@writefile{lot}{\addvspace {10\p@ }}
\@writefile{loa}{\addvspace {10\p@ }}
\@writefile{toc}{\contentsline {paragraph}{}{13}{section*.29}}
\@writefile{toc}{\contentsline {paragraph}{}{13}{section*.30}}
\@writefile{toc}{\contentsline {section}{\numberline {4.1}Fonction de convolution CUDA}{13}{section.4.1}}
\@writefile{toc}{\contentsline {section}{\numberline {4.2}D\IeC {\'e}coupage de donn\IeC {\'e}es : }{13}{section.4.2}}
\@writefile{toc}{\contentsline {section}{\numberline {4.3}Sobel, Ecoulement de fluide, Diffusion de Chaleur}{14}{section.4.3}}
\@writefile{toc}{\contentsline {paragraph}{}{14}{section*.36}}
\@writefile{toc}{\contentsline {section}{\numberline {4.4}Gestion des bords}{14}{section.4.4}}
\@setckpt{besoins_f}{
\setcounter{page}{15}
\setcounter{equation}{0}
\setcounter{enumi}{0}
\setcounter{enumii}{0}
\setcounter{enumiii}{0}
\setcounter{enumiv}{0}
\setcounter{footnote}{0}
\setcounter{mpfootnote}{0}
\setcounter{part}{0}
\setcounter{chapter}{4}
\setcounter{section}{4}
\setcounter{subsection}{0}
\setcounter{subsubsection}{0}
\setcounter{paragraph}{0}
\setcounter{subparagraph}{0}
\setcounter{figure}{0}
\setcounter{table}{0}
\setcounter{Item}{0}
\setcounter{Hfootnote}{3}
\setcounter{bookmark@seq@number}{18}
\setcounter{AlgoLine}{0}
\setcounter{algocfline}{0}
\setcounter{algocfproc}{0}
\setcounter{algocf}{0}
\setcounter{FancyVerbLine}{15}
\setcounter{float@type}{4}
\setcounter{section@level}{1}
}
