\relax 
\providecommand\hyper@newdestlabel[2]{}
\@writefile{toc}{\contentsline {chapter}{\numberline {5}Besoins non fonctionnels}{15}{chapter.5}}
\@writefile{lof}{\addvspace {10\p@ }}
\@writefile{lot}{\addvspace {10\p@ }}
\@writefile{loa}{\addvspace {10\p@ }}
\@writefile{toc}{\contentsline {paragraph}{}{15}{section*.40}}
\@writefile{toc}{\contentsline {section}{\numberline {5.1}Langage de programmation et plateforme}{15}{section.5.1}}
\@writefile{toc}{\contentsline {section}{\numberline {5.2}Interface utilisateur}{15}{section.5.2}}
\@writefile{toc}{\contentsline {section}{\numberline {5.3}Facilit\IeC {\'e} d'utilisation}{15}{section.5.3}}
\@writefile{toc}{\contentsline {section}{\numberline {5.4}Documentation}{16}{section.5.4}}
\@setckpt{besoins_nf}{
\setcounter{page}{17}
\setcounter{equation}{0}
\setcounter{enumi}{0}
\setcounter{enumii}{0}
\setcounter{enumiii}{0}
\setcounter{enumiv}{0}
\setcounter{footnote}{1}
\setcounter{mpfootnote}{0}
\setcounter{part}{0}
\setcounter{chapter}{5}
\setcounter{section}{4}
\setcounter{subsection}{0}
\setcounter{subsubsection}{0}
\setcounter{paragraph}{0}
\setcounter{subparagraph}{0}
\setcounter{figure}{0}
\setcounter{table}{0}
\setcounter{Item}{0}
\setcounter{Hfootnote}{4}
\setcounter{bookmark@seq@number}{23}
\setcounter{AlgoLine}{0}
\setcounter{algocfline}{0}
\setcounter{algocfproc}{0}
\setcounter{algocf}{0}
\setcounter{FancyVerbLine}{15}
\setcounter{float@type}{4}
\setcounter{section@level}{1}
}
