\relax 
\providecommand\hyper@newdestlabel[2]{}
\@writefile{toc}{\contentsline {chapter}{\numberline {9}Convolution}{26}{chapter.9}}
\@writefile{lof}{\addvspace {10\p@ }}
\@writefile{lot}{\addvspace {10\p@ }}
\@writefile{loa}{\addvspace {10\p@ }}
\@writefile{toc}{\contentsline {paragraph}{}{26}{section*.94}}
\@writefile{toc}{\contentsline {section}{\numberline {9.1}G\IeC {\'e}n\IeC {\'e}rique}{26}{section.9.1}}
\@writefile{toc}{\contentsline {section}{\numberline {9.2}S\IeC {\'e}quentiel}{27}{section.9.2}}
\newlabel{ref_sequentiel}{{9.2}{27}{Séquentiel}{section.9.2}{}}
\@writefile{lof}{\contentsline {figure}{\numberline {9.1}{\ignorespaces Illustration des op\IeC {\'e}rations de convolution}}{28}{figure.9.1}}
\newlabel{fig:opconv}{{9.1}{28}{Illustration des opérations de convolution}{figure.9.1}{}}
\@writefile{toc}{\contentsline {section}{\numberline {9.3}Parall\IeC {\`e}le - Multi-Thread}{28}{section.9.3}}
\@writefile{toc}{\contentsline {paragraph}{}{28}{section*.95}}
\@writefile{toc}{\contentsline {paragraph}{}{28}{section*.96}}
\@writefile{toc}{\contentsline {section}{\numberline {9.4}Parall\IeC {\`e}le - CUDA}{28}{section.9.4}}
\@writefile{toc}{\contentsline {paragraph}{}{28}{section*.97}}
\@writefile{toc}{\contentsline {subsection}{\numberline {9.4.1}D\IeC {\'e}coupage}{28}{subsection.9.4.1}}
\@writefile{toc}{\contentsline {paragraph}{}{28}{section*.98}}
\@writefile{toc}{\contentsline {paragraph}{Caract\IeC {\'e}ristiques physiques}{29}{section*.99}}
\@writefile{toc}{\contentsline {paragraph}{}{29}{section*.100}}
\@writefile{toc}{\contentsline {paragraph}{}{29}{section*.101}}
\@writefile{toc}{\contentsline {paragraph}{}{29}{section*.102}}
\@writefile{toc}{\contentsline {paragraph}{Calcul des dimensions maximales}{29}{section*.103}}
\@writefile{toc}{\contentsline {paragraph}{}{29}{section*.104}}
\@writefile{toc}{\contentsline {paragraph}{}{29}{section*.105}}
\@writefile{toc}{\contentsline {paragraph}{}{29}{section*.106}}
\@writefile{toc}{\contentsline {paragraph}{}{29}{section*.107}}
\@writefile{toc}{\contentsline {paragraph}{}{29}{section*.108}}
\@writefile{toc}{\contentsline {paragraph}{}{29}{section*.109}}
\@writefile{toc}{\contentsline {paragraph}{}{30}{section*.110}}
\@writefile{toc}{\contentsline {paragraph}{Calcul des positions et des dimensions r\IeC {\'e}elles des blocs}{30}{section*.111}}
\@writefile{toc}{\contentsline {paragraph}{}{30}{section*.112}}
\@writefile{toc}{\contentsline {paragraph}{}{30}{section*.113}}
\@writefile{toc}{\contentsline {paragraph}{}{30}{section*.114}}
\@writefile{toc}{\contentsline {paragraph}{}{30}{section*.115}}
\@writefile{toc}{\contentsline {paragraph}{}{30}{section*.116}}
\@writefile{toc}{\contentsline {subsection}{\numberline {9.4.2}Streaming - utilisation Pinned-Memory}{31}{subsection.9.4.2}}
\@writefile{toc}{\contentsline {paragraph}{Stream}{31}{section*.117}}
\@writefile{toc}{\contentsline {paragraph}{}{31}{section*.118}}
\@writefile{toc}{\contentsline {paragraph}{}{31}{section*.119}}
\@writefile{toc}{\contentsline {paragraph}{}{31}{section*.120}}
\@writefile{toc}{\contentsline {paragraph}{}{31}{section*.121}}
\@writefile{toc}{\contentsline {paragraph}{Pinned Memory}{31}{section*.122}}
\@writefile{toc}{\contentsline {paragraph}{}{31}{section*.123}}
\@writefile{toc}{\contentsline {paragraph}{}{31}{section*.124}}
\@writefile{toc}{\contentsline {subsection}{\numberline {9.4.3}Calcul - utilisation des Textures}{32}{subsection.9.4.3}}
\@writefile{toc}{\contentsline {paragraph}{}{32}{section*.125}}
\@writefile{toc}{\contentsline {paragraph}{}{32}{section*.126}}
\@writefile{toc}{\contentsline {paragraph}{}{32}{section*.127}}
\@writefile{toc}{\contentsline {paragraph}{}{32}{section*.128}}
\@writefile{toc}{\contentsline {paragraph}{}{32}{section*.129}}
\@writefile{toc}{\contentsline {paragraph}{}{32}{section*.130}}
\@writefile{toc}{\contentsline {paragraph}{}{32}{section*.131}}
\@writefile{toc}{\contentsline {subsection}{\numberline {9.4.4}Calcul - utilisation de la m\IeC {\'e}moire Shared}{32}{subsection.9.4.4}}
\@writefile{toc}{\contentsline {paragraph}{}{32}{section*.132}}
\@writefile{toc}{\contentsline {paragraph}{}{32}{section*.133}}
\@writefile{toc}{\contentsline {paragraph}{}{33}{section*.134}}
\@writefile{toc}{\contentsline {paragraph}{}{33}{section*.135}}
\@writefile{lof}{\contentsline {figure}{\numberline {9.2}{\ignorespaces Alignement m\IeC {\'e}moire banque}}{33}{figure.9.2}}
\@writefile{toc}{\contentsline {paragraph}{}{33}{section*.136}}
\@writefile{toc}{\contentsline {paragraph}{}{33}{section*.137}}
\@writefile{toc}{\contentsline {paragraph}{}{34}{section*.138}}
\@writefile{toc}{\contentsline {paragraph}{}{34}{section*.139}}
\@writefile{toc}{\contentsline {subsection}{\numberline {9.4.5}Principaux probl\IeC {\`e}mes rencontr\IeC {\'e}s}{34}{subsection.9.4.5}}
\@writefile{toc}{\contentsline {paragraph}{}{34}{section*.140}}
\@writefile{toc}{\contentsline {paragraph}{}{34}{section*.141}}
\@writefile{toc}{\contentsline {paragraph}{}{34}{section*.142}}
\@setckpt{convolution}{
\setcounter{page}{35}
\setcounter{equation}{0}
\setcounter{enumi}{7}
\setcounter{enumii}{0}
\setcounter{enumiii}{0}
\setcounter{enumiv}{0}
\setcounter{footnote}{1}
\setcounter{mpfootnote}{0}
\setcounter{part}{0}
\setcounter{chapter}{9}
\setcounter{section}{4}
\setcounter{subsection}{5}
\setcounter{subsubsection}{0}
\setcounter{paragraph}{0}
\setcounter{subparagraph}{0}
\setcounter{figure}{2}
\setcounter{table}{0}
\setcounter{Item}{7}
\setcounter{Hfootnote}{6}
\setcounter{bookmark@seq@number}{43}
\setcounter{AlgoLine}{0}
\setcounter{algocfline}{1}
\setcounter{algocfproc}{1}
\setcounter{algocf}{0}
\setcounter{FancyVerbLine}{16}
\setcounter{float@type}{4}
\setcounter{section@level}{4}
}
