\relax 
\providecommand\hyper@newdestlabel[2]{}
\citation{Gimp}
\@writefile{toc}{\contentsline {chapter}{\numberline {3}Analyse de l'existant}{11}{chapter.3}}
\@writefile{lof}{\addvspace {10\p@ }}
\@writefile{lot}{\addvspace {10\p@ }}
\@writefile{loa}{\addvspace {10\p@ }}
\@writefile{toc}{\contentsline {paragraph}{}{11}{section*.24}}
\@writefile{toc}{\contentsline {section}{\numberline {3.1}Les pr\IeC {\'e}c\IeC {\'e}dents TER}{11}{section.3.1}}
\@writefile{toc}{\contentsline {paragraph}{}{11}{section*.25}}
\@writefile{toc}{\contentsline {paragraph}{}{11}{section*.26}}
\@writefile{toc}{\contentsline {section}{\numberline {3.2}Les matrices de convolution}{11}{section.3.2}}
\@writefile{toc}{\contentsline {paragraph}{}{11}{section*.27}}
\citation{ParallelisationElect}
\citation{NvidiaCuda}
\@writefile{toc}{\contentsline {section}{\numberline {3.3}La parall\IeC {\'e}lisation}{12}{section.3.3}}
\@writefile{toc}{\contentsline {paragraph}{}{12}{section*.28}}
\@setckpt{etatart}{
\setcounter{page}{13}
\setcounter{equation}{0}
\setcounter{enumi}{0}
\setcounter{enumii}{0}
\setcounter{enumiii}{0}
\setcounter{enumiv}{0}
\setcounter{footnote}{0}
\setcounter{mpfootnote}{0}
\setcounter{part}{0}
\setcounter{chapter}{3}
\setcounter{section}{3}
\setcounter{subsection}{0}
\setcounter{subsubsection}{0}
\setcounter{paragraph}{0}
\setcounter{subparagraph}{0}
\setcounter{figure}{0}
\setcounter{table}{0}
\setcounter{Item}{0}
\setcounter{Hfootnote}{3}
\setcounter{bookmark@seq@number}{13}
\setcounter{AlgoLine}{0}
\setcounter{algocfline}{0}
\setcounter{algocfproc}{0}
\setcounter{algocf}{0}
\setcounter{FancyVerbLine}{15}
\setcounter{float@type}{4}
\setcounter{section@level}{4}
}
