\relax 
\providecommand\hyper@newdestlabel[2]{}
\@writefile{toc}{\contentsline {chapter}{\numberline {12}Description des extensions possibles}{40}{chapter.12}}
\@writefile{lof}{\addvspace {10\p@ }}
\@writefile{lot}{\addvspace {10\p@ }}
\@writefile{loa}{\addvspace {10\p@ }}
\@writefile{toc}{\contentsline {paragraph}{}{40}{section*.157}}
\@writefile{toc}{\contentsline {section}{\numberline {12.1}Personnalisation de la matrice et sa formule}{40}{section.12.1}}
\@writefile{toc}{\contentsline {paragraph}{}{40}{section*.158}}
\@writefile{toc}{\contentsline {section}{\numberline {12.2}Gestion des bords}{40}{section.12.2}}
\@writefile{toc}{\contentsline {paragraph}{}{40}{section*.159}}
\@writefile{toc}{\contentsline {section}{\numberline {12.3}Les probl\IeC {\`e}mes qui peuvent se r\IeC {\'e}duire \IeC {\`a} la convolution}{40}{section.12.3}}
\@writefile{toc}{\contentsline {paragraph}{}{40}{section*.160}}
\@writefile{toc}{\contentsline {section}{\numberline {12.4}Am\IeC {\'e}lioration des performances}{40}{section.12.4}}
\@writefile{toc}{\contentsline {paragraph}{}{40}{section*.161}}
\@writefile{toc}{\contentsline {paragraph}{}{41}{section*.162}}
\@setckpt{extension}{
\setcounter{page}{42}
\setcounter{equation}{0}
\setcounter{enumi}{7}
\setcounter{enumii}{0}
\setcounter{enumiii}{0}
\setcounter{enumiv}{0}
\setcounter{footnote}{0}
\setcounter{mpfootnote}{0}
\setcounter{part}{0}
\setcounter{chapter}{12}
\setcounter{section}{4}
\setcounter{subsection}{0}
\setcounter{subsubsection}{0}
\setcounter{paragraph}{0}
\setcounter{subparagraph}{0}
\setcounter{figure}{0}
\setcounter{table}{0}
\setcounter{Item}{7}
\setcounter{Hfootnote}{7}
\setcounter{bookmark@seq@number}{56}
\setcounter{AlgoLine}{0}
\setcounter{algocfline}{1}
\setcounter{algocfproc}{1}
\setcounter{algocf}{0}
\setcounter{FancyVerbLine}{11}
\setcounter{float@type}{4}
\setcounter{section@level}{4}
}
