\relax 
\providecommand\hyper@newdestlabel[2]{}
\@writefile{toc}{\contentsline {chapter}{\numberline {2}Introduction au domaine}{4}{chapter.2}}
\@writefile{lof}{\addvspace {10\p@ }}
\@writefile{lot}{\addvspace {10\p@ }}
\@writefile{loa}{\addvspace {10\p@ }}
\@writefile{toc}{\contentsline {section}{\numberline {2.1}CUDA}{4}{section.2.1}}
\@writefile{toc}{\contentsline {subsection}{\numberline {2.1.1}Les origines de CUDA}{4}{subsection.2.1.1}}
\@writefile{toc}{\contentsline {subsection}{\numberline {2.1.2}Architecture}{4}{subsection.2.1.2}}
\@writefile{toc}{\contentsline {subsubsection}{Hi\IeC {\'e}rarchisation des threads}{4}{section*.6}}
\@writefile{toc}{\contentsline {paragraph}{}{4}{section*.7}}
\@writefile{lof}{\contentsline {figure}{\numberline {2.1}{\ignorespaces Sch\IeC {\'e}ma de l'architecture CUDA.}}{5}{figure.2.1}}
\newlabel{fig:archi}{{2.1}{5}{Schéma de l'architecture CUDA}{figure.2.1}{}}
\@writefile{toc}{\contentsline {paragraph}{}{5}{section*.8}}
\@writefile{lof}{\contentsline {figure}{\numberline {2.2}{\ignorespaces Hi\IeC {\'e}rarchisation des threads avec une grille en 2 dimensions et des blocs en 3 dimensions.}}{5}{figure.2.2}}
\@writefile{toc}{\contentsline {subsubsection}{R\IeC {\'e}partition des m\IeC {\'e}moires}{6}{section*.9}}
\@writefile{toc}{\contentsline {paragraph}{}{6}{section*.10}}
\@writefile{toc}{\contentsline {paragraph}{}{6}{section*.11}}
\@writefile{toc}{\contentsline {paragraph}{}{6}{section*.12}}
\@writefile{toc}{\contentsline {paragraph}{}{6}{section*.13}}
\@writefile{toc}{\contentsline {paragraph}{}{6}{section*.14}}
\@writefile{lof}{\contentsline {figure}{\numberline {2.3}{\ignorespaces R\IeC {\'e}partition de la m\IeC {\'e}moire sur une carte graphique reposant sur une architecture CUDA}}{7}{figure.2.3}}
\@writefile{toc}{\contentsline {subsection}{\numberline {2.1.3}Les outils fournis pour utiliser CUDA}{7}{subsection.2.1.3}}
\@writefile{lof}{\contentsline {figure}{\numberline {2.4}{\ignorespaces Les diff\IeC {\'e}rents niveaux}}{8}{figure.2.4}}
\@writefile{toc}{\contentsline {subsubsection}{Biblioth\IeC {\`e}ques - Qualifieurs de fonctions}{8}{section*.15}}
\@writefile{toc}{\contentsline {paragraph}{}{8}{section*.16}}
\@writefile{toc}{\contentsline {paragraph}{}{8}{section*.17}}
\@writefile{toc}{\contentsline {paragraph}{}{8}{section*.18}}
\@writefile{toc}{\contentsline {subsubsection}{Biblioth\IeC {\`e}que - Qualifieurs de variables}{9}{section*.19}}
\@writefile{toc}{\contentsline {subsubsection}{Biblioth\IeC {\`e}que - autre}{9}{section*.20}}
\@writefile{toc}{\contentsline {section}{\numberline {2.2}Les matrices de convolution}{9}{section.2.2}}
\@writefile{toc}{\contentsline {subsection}{\numberline {2.2.1}D\IeC {\'e}finition}{9}{subsection.2.2.1}}
\@writefile{toc}{\contentsline {paragraph}{}{9}{section*.21}}
\@writefile{toc}{\contentsline {paragraph}{}{9}{section*.22}}
\@writefile{lof}{\contentsline {figure}{\numberline {2.5}{\ignorespaces Exemple simple de convolution}}{9}{figure.2.5}}
\@writefile{toc}{\contentsline {subsection}{\numberline {2.2.2}Les algorithmes assimil\IeC {\'e}s}{10}{subsection.2.2.2}}
\@writefile{toc}{\contentsline {paragraph}{}{10}{section*.23}}
\@setckpt{intro}{
\setcounter{page}{11}
\setcounter{equation}{0}
\setcounter{enumi}{0}
\setcounter{enumii}{0}
\setcounter{enumiii}{0}
\setcounter{enumiv}{0}
\setcounter{footnote}{3}
\setcounter{mpfootnote}{0}
\setcounter{part}{0}
\setcounter{chapter}{2}
\setcounter{section}{2}
\setcounter{subsection}{2}
\setcounter{subsubsection}{0}
\setcounter{paragraph}{0}
\setcounter{subparagraph}{0}
\setcounter{figure}{5}
\setcounter{table}{0}
\setcounter{Item}{0}
\setcounter{Hfootnote}{3}
\setcounter{bookmark@seq@number}{9}
\setcounter{AlgoLine}{0}
\setcounter{algocfline}{0}
\setcounter{algocfproc}{0}
\setcounter{algocf}{0}
\setcounter{FancyVerbLine}{15}
\setcounter{float@type}{4}
\setcounter{section@level}{4}
}
