\relax 
\providecommand\hyper@newdestlabel[2]{}
\@writefile{toc}{\contentsline {chapter}{\numberline {6}Prototypes et Id\IeC {\'e}es}{17}{chapter.6}}
\@writefile{lof}{\addvspace {10\p@ }}
\@writefile{lot}{\addvspace {10\p@ }}
\@writefile{loa}{\addvspace {10\p@ }}
\@writefile{toc}{\contentsline {paragraph}{}{17}{section*.49}}
\@writefile{toc}{\contentsline {section}{\numberline {6.1}M\IeC {\'e}thode d'appel g\IeC {\'e}n\IeC {\'e}rique}{17}{section.6.1}}
\@writefile{toc}{\contentsline {paragraph}{}{17}{section*.50}}
\@writefile{toc}{\contentsline {paragraph}{}{17}{section*.52}}
\@writefile{toc}{\contentsline {paragraph}{}{17}{section*.53}}
\@writefile{toc}{\contentsline {paragraph}{}{17}{section*.55}}
\@writefile{toc}{\contentsline {paragraph}{}{17}{section*.56}}
\@writefile{toc}{\contentsline {paragraph}{}{18}{section*.58}}
\@writefile{toc}{\contentsline {section}{\numberline {6.2}M\IeC {\'e}moire : partage et d\IeC {\'e}coupage}{18}{section.6.2}}
\@writefile{toc}{\contentsline {paragraph}{}{18}{section*.59}}
\@writefile{toc}{\contentsline {paragraph}{}{18}{section*.61}}
\@writefile{toc}{\contentsline {paragraph}{}{18}{section*.62}}
\@writefile{toc}{\contentsline {paragraph}{}{18}{section*.63}}
\@writefile{toc}{\contentsline {paragraph}{}{18}{section*.65}}
\@writefile{toc}{\contentsline {paragraph}{}{18}{section*.66}}
\@writefile{toc}{\contentsline {paragraph}{}{19}{section*.67}}
\@writefile{toc}{\contentsline {paragraph}{}{19}{section*.69}}
\@writefile{toc}{\contentsline {paragraph}{}{19}{section*.70}}
\@writefile{toc}{\contentsline {section}{\numberline {6.3}Tests et optimisations possibles}{19}{section.6.3}}
\@writefile{toc}{\contentsline {paragraph}{}{19}{section*.71}}
\@writefile{toc}{\contentsline {paragraph}{}{19}{section*.73}}
\@writefile{toc}{\contentsline {paragraph}{}{19}{section*.75}}
\@writefile{toc}{\contentsline {paragraph}{}{20}{section*.77}}
\@writefile{toc}{\contentsline {paragraph}{}{20}{section*.78}}
\@writefile{toc}{\contentsline {section}{\numberline {6.4}Evolution par rapport au prototype}{20}{section.6.4}}
\@writefile{toc}{\contentsline {paragraph}{}{20}{section*.79}}
\@writefile{toc}{\contentsline {paragraph}{}{20}{section*.80}}
\@setckpt{protos}{
\setcounter{page}{21}
\setcounter{equation}{0}
\setcounter{enumi}{0}
\setcounter{enumii}{0}
\setcounter{enumiii}{0}
\setcounter{enumiv}{0}
\setcounter{footnote}{1}
\setcounter{mpfootnote}{0}
\setcounter{part}{0}
\setcounter{chapter}{6}
\setcounter{section}{4}
\setcounter{subsection}{0}
\setcounter{subsubsection}{0}
\setcounter{paragraph}{0}
\setcounter{subparagraph}{0}
\setcounter{figure}{0}
\setcounter{table}{0}
\setcounter{Item}{0}
\setcounter{Hfootnote}{5}
\setcounter{bookmark@seq@number}{28}
\setcounter{AlgoLine}{0}
\setcounter{algocfline}{1}
\setcounter{algocfproc}{1}
\setcounter{algocf}{0}
\setcounter{FancyVerbLine}{3}
\setcounter{float@type}{4}
\setcounter{section@level}{4}
}
