This is BibTeX, Version 0.99d (TeX Live 2013)
Capacity: max_strings=35307, hash_size=35307, hash_prime=30011
The top-level auxiliary file: rapport.aux
A level-1 auxiliary file: resume.aux
A level-1 auxiliary file: intro.aux
A level-1 auxiliary file: etatart.aux
A level-1 auxiliary file: besoins_f.aux
A level-1 auxiliary file: besoins_nf.aux
A level-1 auxiliary file: protos.aux
A level-1 auxiliary file: utilisation.aux
A level-1 auxiliary file: archi.aux
A level-1 auxiliary file: convolution.aux
A level-1 auxiliary file: analyse.aux
A level-1 auxiliary file: verification.aux
A level-1 auxiliary file: extension.aux
The style file: plain.bst
Database file #1: biblio.bib.bib
You've used 10 entries,
            2118 wiz_defined-function locations,
            566 strings with 5521 characters,
and the built_in function-call counts, 2112 in all, are:
= -- 195
> -- 76
< -- 0
+ -- 32
- -- 22
* -- 68
:= -- 367
add.period$ -- 28
call.type$ -- 10
change.case$ -- 39
chr.to.int$ -- 0
cite$ -- 10
duplicate$ -- 78
empty$ -- 216
format.name$ -- 22
if$ -- 456
int.to.chr$ -- 0
int.to.str$ -- 10
missing$ -- 3
newline$ -- 51
num.names$ -- 20
pop$ -- 79
preamble$ -- 1
purify$ -- 31
quote$ -- 0
skip$ -- 72
stack$ -- 0
substring$ -- 50
swap$ -- 10
text.length$ -- 0
text.prefix$ -- 0
top$ -- 0
type$ -- 38
warning$ -- 0
while$ -- 20
width$ -- 12
write$ -- 96
