\relax 
\providecommand\hyper@newdestlabel[2]{}
\catcode `:\active 
\catcode `;\active 
\catcode `!\active 
\catcode `?\active 
\providecommand\HyperFirstAtBeginDocument{\AtBeginDocument}
\HyperFirstAtBeginDocument{\ifx\hyper@anchor\@undefined
\global\let\oldcontentsline\contentsline
\gdef\contentsline#1#2#3#4{\oldcontentsline{#1}{#2}{#3}}
\global\let\oldnewlabel\newlabel
\gdef\newlabel#1#2{\newlabelxx{#1}#2}
\gdef\newlabelxx#1#2#3#4#5#6{\oldnewlabel{#1}{{#2}{#3}}}
\AtEndDocument{\ifx\hyper@anchor\@undefined
\let\contentsline\oldcontentsline
\let\newlabel\oldnewlabel
\fi}
\fi}
\global\let\hyper@last\relax 
\gdef\HyperFirstAtBeginDocument#1{#1}
\providecommand\HyField@AuxAddToFields[1]{}
\providecommand\HyField@AuxAddToCoFields[2]{}
\select@language{french}
\@writefile{toc}{\select@language{french}}
\@writefile{lof}{\select@language{french}}
\@writefile{lot}{\select@language{french}}
\citation{*}
\@input{resume.aux}
\@input{intro.aux}
\@input{etatart.aux}
\@input{besoins_f.aux}
\@input{besoins_nf.aux}
\@input{protos.aux}
\@input{utilisation.aux}
\@input{archi.aux}
\@input{convolution.aux}
\@input{analyse.aux}
\@input{verification.aux}
\@input{extension.aux}
\bibstyle{plain}
\bibdata{biblio.bib}
\bibcite{ApiCuda}{1}
\bibcite{GTX480}{2}
\bibcite{ParallelisationElect}{3}
\bibcite{Gimp}{4}
\bibcite{GPUGems}{5}
\bibcite{cudabe}{6}
\bibcite{IrwinSobel}{7}
\bibcite{NvidiaCuda}{8}
\bibcite{CudaWiki}{9}
\bibcite{KernelMatrix}{10}
