\relax 
\providecommand\hyper@newdestlabel[2]{}
\@writefile{toc}{\contentsline {chapter}{\numberline {7}Exemple de fonctionnement}{21}{chapter.7}}
\@writefile{lof}{\addvspace {10\p@ }}
\@writefile{lot}{\addvspace {10\p@ }}
\@writefile{loa}{\addvspace {10\p@ }}
\@writefile{toc}{\contentsline {paragraph}{}{21}{section*.81}}
\@writefile{lof}{\contentsline {figure}{\numberline {7.1}{\ignorespaces Matrice de convolution pour d\IeC {\'e}tection de contours}}{21}{figure.7.1}}
\@writefile{lof}{\contentsline {figure}{\numberline {7.2}{\ignorespaces Image avant et apr\IeC {\`e}s d\IeC {\'e}tection de contours}}{21}{figure.7.2}}
\@writefile{toc}{\contentsline {paragraph}{}{22}{section*.82}}
\@writefile{lof}{\contentsline {figure}{\numberline {7.3}{\ignorespaces Matrice de convolution pour d\IeC {\'e}tection de contours}}{22}{figure.7.3}}
\@writefile{lof}{\contentsline {figure}{\numberline {7.4}{\ignorespaces Image avant et apr\IeC {\`e}s la d\IeC {\'e}tection de contours}}{22}{figure.7.4}}
\@writefile{toc}{\contentsline {paragraph}{}{22}{section*.83}}
\@writefile{lof}{\contentsline {figure}{\numberline {7.5}{\ignorespaces Image avant et apr\IeC {\`e}s le flou}}{22}{figure.7.5}}
\@setckpt{utilisation}{
\setcounter{page}{23}
\setcounter{equation}{0}
\setcounter{enumi}{0}
\setcounter{enumii}{0}
\setcounter{enumiii}{0}
\setcounter{enumiv}{0}
\setcounter{footnote}{0}
\setcounter{mpfootnote}{0}
\setcounter{part}{0}
\setcounter{chapter}{7}
\setcounter{section}{0}
\setcounter{subsection}{0}
\setcounter{subsubsection}{0}
\setcounter{paragraph}{0}
\setcounter{subparagraph}{0}
\setcounter{figure}{5}
\setcounter{table}{0}
\setcounter{Item}{0}
\setcounter{Hfootnote}{5}
\setcounter{bookmark@seq@number}{29}
\setcounter{AlgoLine}{0}
\setcounter{algocfline}{1}
\setcounter{algocfproc}{1}
\setcounter{algocf}{0}
\setcounter{FancyVerbLine}{3}
\setcounter{float@type}{4}
\setcounter{section@level}{4}
}
