\relax 
\providecommand\hyper@newdestlabel[2]{}
\@writefile{toc}{\contentsline {chapter}{\numberline {11}V\IeC {\'e}rifications et tests}{38}{chapter.11}}
\@writefile{lof}{\addvspace {10\p@ }}
\@writefile{lot}{\addvspace {10\p@ }}
\@writefile{loa}{\addvspace {10\p@ }}
\@writefile{toc}{\contentsline {section}{\numberline {11.1}Benchmarks}{38}{section.11.1}}
\newlabel{ref_benchmarks}{{11.1}{38}{Benchmarks}{section.11.1}{}}
\@writefile{toc}{\contentsline {paragraph}{}{38}{section*.150}}
\@writefile{toc}{\contentsline {paragraph}{}{38}{section*.151}}
\@writefile{lof}{\contentsline {figure}{\numberline {11.1}{\ignorespaces R\IeC {\'e}capitulatif}}{38}{figure.11.1}}
\@writefile{toc}{\contentsline {paragraph}{}{38}{section*.152}}
\@writefile{lof}{\contentsline {figure}{\numberline {11.2}{\ignorespaces Temps d'ex\IeC {\'e}cution (sec) en fonction du type d'algorithme}}{39}{figure.11.2}}
\@writefile{toc}{\contentsline {paragraph}{}{39}{section*.153}}
\@writefile{toc}{\contentsline {section}{\numberline {11.2}V\IeC {\'e}rification des r\IeC {\'e}sultats}{39}{section.11.2}}
\@writefile{toc}{\contentsline {paragraph}{}{39}{section*.154}}
\@writefile{toc}{\contentsline {section}{\numberline {11.3}Qu'en d\IeC {\'e}duire ?}{39}{section.11.3}}
\@writefile{toc}{\contentsline {paragraph}{}{39}{section*.155}}
\@writefile{toc}{\contentsline {paragraph}{}{39}{section*.156}}
\@setckpt{verification}{
\setcounter{page}{40}
\setcounter{equation}{0}
\setcounter{enumi}{7}
\setcounter{enumii}{0}
\setcounter{enumiii}{0}
\setcounter{enumiv}{0}
\setcounter{footnote}{1}
\setcounter{mpfootnote}{0}
\setcounter{part}{0}
\setcounter{chapter}{11}
\setcounter{section}{3}
\setcounter{subsection}{0}
\setcounter{subsubsection}{0}
\setcounter{paragraph}{0}
\setcounter{subparagraph}{0}
\setcounter{figure}{2}
\setcounter{table}{0}
\setcounter{Item}{7}
\setcounter{Hfootnote}{7}
\setcounter{bookmark@seq@number}{51}
\setcounter{AlgoLine}{0}
\setcounter{algocfline}{1}
\setcounter{algocfproc}{1}
\setcounter{algocf}{0}
\setcounter{FancyVerbLine}{11}
\setcounter{float@type}{4}
\setcounter{section@level}{4}
}
