\beamer@endinputifotherversion {3.26pt}
\headcommand {\slideentry {0}{0}{1}{1/1}{}{0}}
\headcommand {\beamer@framepages {1}{1}}
\headcommand {\slideentry {0}{0}{2}{2/2}{}{0}}
\headcommand {\beamer@framepages {2}{2}}
\headcommand {\sectionentry {1}{Domaine}{3}{Domaine}{0}}
\headcommand {\beamer@sectionpages {1}{2}}
\headcommand {\beamer@subsectionpages {1}{2}}
\headcommand {\slideentry {1}{0}{3}{3/3}{}{0}}
\headcommand {\beamer@framepages {3}{3}}
\headcommand {\slideentry {1}{0}{4}{4/4}{}{0}}
\headcommand {\beamer@framepages {4}{4}}
\headcommand {\beamer@subsectionentry {0}{1}{1}{5}{La programmation massivement multiprocesseur}}\headcommand {\beamer@subsectionpages {3}{4}}
\headcommand {\slideentry {1}{1}{1}{5/5}{La programmation massivement multiprocesseur}{0}}
\headcommand {\beamer@framepages {5}{5}}
\headcommand {\slideentry {1}{1}{2}{6/6}{La programmation massivement multiprocesseur}{0}}
\headcommand {\beamer@framepages {6}{6}}
\headcommand {\slideentry {1}{1}{3}{7/7}{La programmation massivement multiprocesseur}{0}}
\headcommand {\beamer@framepages {7}{7}}
\headcommand {\slideentry {1}{1}{4}{8/8}{La programmation massivement multiprocesseur}{0}}
\headcommand {\beamer@framepages {8}{8}}
\headcommand {\beamer@subsectionentry {0}{1}{2}{9}{Les matrices de convolution}}\headcommand {\beamer@subsectionpages {5}{8}}
\headcommand {\slideentry {1}{2}{1}{9/9}{Les matrices de convolution}{0}}
\headcommand {\beamer@framepages {9}{9}}
\headcommand {\slideentry {1}{2}{2}{10/10}{Les matrices de convolution}{0}}
\headcommand {\beamer@framepages {10}{10}}
\headcommand {\sectionentry {2}{Description}{11}{Description}{0}}
\headcommand {\beamer@sectionpages {3}{10}}
\headcommand {\beamer@subsectionpages {9}{10}}
\headcommand {\slideentry {2}{0}{3}{11/11}{}{0}}
\headcommand {\beamer@framepages {11}{11}}
\headcommand {\slideentry {2}{0}{4}{12/12}{}{0}}
\headcommand {\beamer@framepages {12}{12}}
\headcommand {\sectionentry {3}{Architecture}{13}{Architecture}{0}}
\headcommand {\beamer@sectionpages {11}{12}}
\headcommand {\beamer@subsectionpages {11}{12}}
\headcommand {\slideentry {3}{0}{5}{13/13}{}{0}}
\headcommand {\beamer@framepages {13}{13}}
\headcommand {\slideentry {3}{0}{6}{14/14}{}{0}}
\headcommand {\beamer@framepages {14}{14}}
\headcommand {\slideentry {3}{0}{7}{15/15}{}{0}}
\headcommand {\beamer@framepages {15}{15}}
\headcommand {\slideentry {3}{0}{8}{16/16}{}{0}}
\headcommand {\beamer@framepages {16}{16}}
\headcommand {\sectionentry {4}{Points techniques}{17}{Points techniques}{0}}
\headcommand {\beamer@sectionpages {13}{16}}
\headcommand {\beamer@subsectionpages {13}{16}}
\headcommand {\slideentry {4}{0}{9}{17/17}{}{0}}
\headcommand {\beamer@framepages {17}{17}}
\headcommand {\beamer@subsectionentry {0}{4}{1}{18}{Streaming}}\headcommand {\beamer@subsectionpages {17}{17}}
\headcommand {\slideentry {4}{1}{1}{18/18}{Streaming}{0}}
\headcommand {\beamer@framepages {18}{18}}
\headcommand {\slideentry {4}{1}{2}{19/19}{Streaming}{0}}
\headcommand {\beamer@framepages {19}{19}}
\headcommand {\slideentry {4}{1}{3}{20/20}{Streaming}{0}}
\headcommand {\beamer@framepages {20}{20}}
\headcommand {\beamer@subsectionentry {0}{4}{2}{21}{Optimisations M\IeC {\'e}moire}}\headcommand {\beamer@subsectionpages {18}{20}}
\headcommand {\slideentry {4}{2}{1}{21/21}{Optimisations M\IeC {\'e}moire}{0}}
\headcommand {\beamer@framepages {21}{21}}
\headcommand {\slideentry {4}{2}{2}{22/22}{Optimisations M\IeC {\'e}moire}{0}}
\headcommand {\beamer@framepages {22}{22}}
\headcommand {\slideentry {4}{2}{3}{23/23}{Optimisations M\IeC {\'e}moire}{0}}
\headcommand {\beamer@framepages {23}{23}}
\headcommand {\slideentry {4}{2}{4}{24/24}{Optimisations M\IeC {\'e}moire}{0}}
\headcommand {\beamer@framepages {24}{24}}
\headcommand {\sectionentry {5}{Fonctionnement}{25}{Fonctionnement}{0}}
\headcommand {\beamer@sectionpages {17}{24}}
\headcommand {\beamer@subsectionpages {21}{24}}
\headcommand {\slideentry {5}{0}{5}{25/25}{}{0}}
\headcommand {\beamer@framepages {25}{25}}
\headcommand {\slideentry {5}{0}{6}{26/26}{}{0}}
\headcommand {\beamer@framepages {26}{26}}
\headcommand {\slideentry {5}{0}{7}{27/27}{}{0}}
\headcommand {\beamer@framepages {27}{27}}
\headcommand {\slideentry {5}{0}{8}{28/28}{}{0}}
\headcommand {\beamer@framepages {28}{28}}
\headcommand {\sectionentry {6}{R\IeC {\'e}sultats}{29}{R\IeC {\'e}sultats}{0}}
\headcommand {\beamer@sectionpages {25}{28}}
\headcommand {\beamer@subsectionpages {25}{28}}
\headcommand {\slideentry {6}{0}{9}{29/29}{}{0}}
\headcommand {\beamer@framepages {29}{29}}
\headcommand {\slideentry {6}{0}{10}{30/30}{}{0}}
\headcommand {\beamer@framepages {30}{30}}
\headcommand {\slideentry {6}{0}{11}{31/31}{}{0}}
\headcommand {\beamer@framepages {31}{31}}
\headcommand {\beamer@partpages {1}{31}}
\headcommand {\beamer@subsectionpages {29}{31}}
\headcommand {\beamer@sectionpages {29}{31}}
\headcommand {\beamer@documentpages {31}}
\headcommand {\def \inserttotalframenumber {31}}
